{
  "ansible-managed-comment": {
      "prefix": "ansible-managed-comment",
      "description": "Pass ansible_managed through the comment filter",
      "body": [
          "{{ ansible_managed | comment }}"
      ]
  }
}
